…
#Merge the weekdays columns as one single column.
news <- newsData %>% 
  filter(.data[[channel]] == 1) %>% 
  select(url, starts_with("weekday_is_")) %>% 
  pivot_longer(-url) %>% 
  filter(value != 0) %>% 
  mutate(publish_weekday = substr(name, 12, 20)) %>% 
  left_join(newsData, by = "url") %>% 
#Remove non predictive variables
  select(-c(url, name, value, timedelta, starts_with("data_channel_is_"), starts_with("weekday_is_")))
news$publish_weekday <- as.factor(news$publish_weekday)
news
```

    ## # A tibble: 6,258 × 47
    ##    publish_…¹ n_tok…² n_tok…³ n_uni…⁴ n_non…⁵ n_non…⁶ num_h…⁷ num_s…⁸ num_i…⁹
    ##    <fct>        <dbl>   <dbl>   <dbl>   <dbl>   <dbl>   <dbl>   <dbl>   <dbl>
    ##  1 monday           9     255   0.605    1.00   0.792       3       1       1
    ##  2 monday           9     211   0.575    1.00   0.664       3       1       1
    ##  3 monday           8     397   0.625    1.00   0.806      11       0       1
    ##  4 monday          13     244   0.560    1.00   0.680       3       2       1
    ##  5 monday          11     723   0.491    1.00   0.642      18       1       1
    ##  6 monday           8     708   0.482    1.00   0.688       8       3       1
    ##  7 monday          10     142   0.655    1.00   0.792       2       1       1
    ##  8 monday          12     444   0.601    1.00   0.755       9       8      23
    ##  9 monday           6     109   0.667    1.00   0.737       3       2       1
    ## 10 tuesday         13     306   0.535    1.00   0.705       3       2       1
    ## # … with 6,248 more rows, 38 more variables: num_videos <dbl>,
    ## #   average_token_length <dbl>, num_keywords <dbl>, kw_min_min <dbl>,
    ## #   kw_max_min <dbl>, kw_avg_min <dbl>, kw_min_max <dbl>, kw_max_max <dbl>,
    ## #   kw_avg_max <dbl>, kw_min_avg <dbl>, kw_max_avg <dbl>, kw_avg_avg <dbl>,
    ## #   self_reference_min_shares <dbl>, self_reference_max_shares <dbl>,
    ## #   self_reference_avg_sharess <dbl>, is_weekend <dbl>, LDA_00 <dbl>,
    ## #   LDA_01 <dbl>, LDA_02 <dbl>, LDA_03 <dbl>, LDA_04 <dbl>, …
…
``` r
newsTrain %>% 
  group_by(num_imgs) %>% 
  summarise(mean = round(mean(shares), 0), sd = round(sd(shares), 0), 
            median = round(median(shares), 0), IQR = round(IQR(shares), 0))
```

    ## # A tibble: 38 × 5
    ##    num_imgs  mean    sd median   IQR
    ##       <dbl> <dbl> <dbl>  <dbl> <dbl>
    ##  1        0  6374 35495   1400  1557
    ##  2        1  2344  5420   1300  1379
    ##  3        2  2437  3647   1500  1500
    ##  4        3  3217  4945   2000  2575
    ##  5        4  2873  1915   2400  1800
    ##  6        5  5583  4977   3800  4575
    ##  7        6  4353  4683   3400  3650
    ##  8        7  3311  3344   2150  2175
    ##  9        8  3667  3547   2000  3900
    ## 10        9  3470  3368   1800  3200
    ## # … with 28 more rows

``` r
newsTrain %>% 
  group_by(num_videos) %>% 
  summarise(mean = round(mean(shares), 0), sd = round(sd(shares), 0), 
            median = round(median(shares), 0), IQR = round(IQR(shares), 0))
```

    ## # A tibble: 27 × 5
    ##    num_videos  mean    sd median   IQR
    ##         <dbl> <dbl> <dbl>  <dbl> <dbl>
    ##  1          0  2397  6929   1300  1374
    ##  2          1  3978 11078   1600  1925
    ##  3          2  8664 30518   2000  3300
    ##  4          3  2758  2962   1900  1200
    ##  5          4  2345  1339   2100  1500
    ##  6          5  2011  1267   1800   600
    ##  7          6  2811  2699   1900  2577
    ##  8          7  1538   572   1450   562
    ##  9          8  1467   550   1500   549
    ## 10          9  9338 12108   9338  8562
    ## # … with 17 more rows
…
``` r
set.seed(111)
Train <- newsTrain %>% 
  select(publish_weekday, n_tokens_title, n_tokens_content, num_self_hrefs, num_videos, average_token_length, num_keywords, kw_avg_avg, self_reference_avg_sharess, LDA_04, global_subjectivity, global_sentiment_polarity, avg_positive_polarity, avg_negative_polarity, title_subjectivity, shares)
Test <- newsTest %>% 
  select(publish_weekday, n_tokens_title, n_tokens_content, num_self_hrefs, num_videos, average_token_length, num_keywords, kw_avg_avg, self_reference_avg_sharess, LDA_04, global_subjectivity, global_sentiment_polarity, avg_positive_polarity, avg_negative_polarity, title_subjectivity, shares)
Train
```

    ## # A tibble: 4,382 × 16
    ##    publish_…¹ n_tok…² n_tok…³ num_s…⁴ num_v…⁵ avera…⁶ num_k…⁷ kw_av…⁸ self_…⁹
    ##    <fct>        <dbl>   <dbl>   <dbl>   <dbl>   <dbl>   <dbl>   <dbl>   <dbl>
    ##  1 monday           9     255       1       0    4.91       4      0       0 
    ##  2 monday           8     397       0       0    5.45       6      0       0 
    ##  3 monday          13     244       2       0    4.42       4      0    2800 
    ##  4 monday           8     708       3       1    4.62       7      0    6100 
    ##  5 monday          10     142       1       0    4.27       5      0       0 
    ##  6 monday          12     444       8       0    4.81      10      0     997.
    ##  7 wednesday        9     759       9       0    4.66       6    650.   2989 
    ##  8 wednesday        9     233       1       0    4.64       4    802.   2000 
    ##  9 wednesday       10     424       0       0    4.98       6    535.      0 
    ## 10 wednesday       11     173       2       0    4.94      10    955.   2100 
    ## # … with 4,372 more rows, 7 more variables: LDA_04 <dbl>,
    ## #   global_subjectivity <dbl>, global_sentiment_polarity <dbl>,
    ## #   avg_positive_polarity <dbl>, avg_negative_polarity <dbl>,
    ## #   title_subjectivity <dbl>, shares <dbl>, and abbreviated variable names
    ## #   ¹​publish_weekday, ²​n_tokens_title, ³​n_tokens_content, ⁴​num_self_hrefs,
    ## #   ⁵​num_videos, ⁶​average_token_length, ⁷​num_keywords, ⁸​kw_avg_avg,
    ## #   ⁹​self_reference_avg_sharess
…
