…
news <- newsData %>% 
  filter(get(selectChannel) == 1) %>% 
  select(url, starts_with("weekday_is_")) %>% 
  pivot_longer(-url) %>% 
  filter(value != 0) %>% 
  mutate(publish_weekday = substr(name, 12, 20)) %>% 
  left_join(newsData, by = "url") %>% 
#Remove non predictive variables
  select(-c(url, name, value, timedelta, starts_with("data_channel_is_"), starts_with("weekday_is_")))
#convert publish_weekday to factor
news$publish_weekday <- as.factor(news$publish_weekday)
news
```

    ## # A tibble: 7,057 × 47
    ##    publish_…¹ n_tok…² n_tok…³ n_uni…⁴ n_non…⁵ n_non…⁶ num_h…⁷ num_s…⁸ num_i…⁹
    ##    <fct>        <dbl>   <dbl>   <dbl>   <dbl>   <dbl>   <dbl>   <dbl>   <dbl>
    ##  1 monday          12     219   0.664    1.00   0.815       4       2       1
    ##  2 monday           9     531   0.504    1.00   0.666       9       0       1
    ##  3 monday          14     194   0.765    1.00   0.840       4       4       0
    ##  4 monday          12     161   0.669    1.00   0.752       5       4       0
    ##  5 monday          11     454   0.566    1.00   0.755       5       3       1
    ##  6 monday          12     177   0.741    1.00   0.823       4       3       1
    ##  7 monday           5     356   0.618    1.00   0.766       3       3      12
    ##  8 tuesday         11     281   0.611    1.00   0.766       5       4       1
    ##  9 tuesday         10     909   0.450    1.00   0.670       3       2       1
    ## 10 wednesday       10     413   0.606    1.00   0.729       6       1      13
    ## # … with 7,047 more rows, 38 more variables: num_videos <dbl>,
    ## #   average_token_length <dbl>, num_keywords <dbl>, kw_min_min <dbl>,
    ## #   kw_max_min <dbl>, kw_avg_min <dbl>, kw_min_max <dbl>, kw_max_max <dbl>,
    ## #   kw_avg_max <dbl>, kw_min_avg <dbl>, kw_max_avg <dbl>, kw_avg_avg <dbl>,
    ## #   self_reference_min_shares <dbl>, self_reference_max_shares <dbl>,
    ## #   self_reference_avg_sharess <dbl>, is_weekend <dbl>, LDA_00 <dbl>,
    ## #   LDA_01 <dbl>, LDA_02 <dbl>, LDA_03 <dbl>, LDA_04 <dbl>, …
…
We also obtain the numerical summaries on some subgroups. We choose four
example subgroups: number of images, number of videos, and number of
keywords, since people may concern more on these when they do searching
and sharing.

``` r
#numerical summaries on subgroups
newsTrain %>% 
  group_by(num_imgs) %>% 
  summarise(mean = round(mean(shares), 0), sd = round(sd(shares), 0), 
            median = round(median(shares), 0), IQR = round(IQR(shares), 0))
```

    ## # A tibble: 72 × 5
    ##    num_imgs  mean    sd median   IQR
    ##       <dbl> <dbl> <dbl>  <dbl> <dbl>
    ##  1        0  3545  7599   1200  1754
    ##  2        1  2377  6461   1100   997
    ##  3        2  3020  8868   1100   871
    ##  4        3  2115  3315   1100  1071
    ##  5        4  2843  4001   1250  1733
    ##  6        5  2345  5493   1200   702
    ##  7        6  2965  4041   1450  1980
    ##  8        7  1811  1609   1200  1115
    ##  9        8  4581  9330   1200  2384
    ## 10        9  2557  3058   1400  1706
    ## # … with 62 more rows

``` r
newsTrain %>% 
  group_by(num_videos) %>% 
  summarise(mean = round(mean(shares), 0), sd = round(sd(shares), 0), 
            median = round(median(shares), 0), IQR = round(IQR(shares), 0))
```

    ## # A tibble: 45 × 5
    ##    num_videos  mean    sd median   IQR
    ##         <dbl> <dbl> <dbl>  <dbl> <dbl>
    ##  1          0  2563  7003   1100   998
    ##  2          1  3632 10534   1200  1644
    ##  3          2  3418  8800   1200  1540
    ##  4          3  3240  8094   1200  1510
    ##  5          4  3477  7971   1300  1200
    ##  6          5  3220  6596   1500  1949
    ##  7          6  8195 24034   1300  1339
    ##  8          7  3406  5219   1300  2298
    ##  9          8  1839  1770   1100   961
    ## 10          9  1649  1418   1250   895
    ## # … with 35 more rows
…
