…
#Merge the weekdays columns channels as one single column.
news <- newsData %>% 
  filter(.data[[channel]] == 1) %>% 
  select(url, starts_with("weekday_is_")) %>% 
  pivot_longer(-url) %>% 
  filter(value != 0) %>% 
  mutate(publish_weekday = substr(name, 12, 20)) %>% 
  left_join(newsData, by = "url") %>% 
#Remove non predictive variables
  select(-c(url, name, value, timedelta, starts_with("data_channel_is_"), starts_with("weekday_is_")))
news$publish_weekday <- as.factor(news$publish_weekday)
news
```

    ## # A tibble: 2,099 × 47
    ##    publish_wee…¹ n_tok…² n_tok…³ n_uni…⁴ n_non…⁵ n_non…⁶ num_h…⁷ num_s…⁸ num_i…⁹
    ##    <fct>           <dbl>   <dbl>   <dbl>   <dbl>   <dbl>   <dbl>   <dbl>   <dbl>
    ##  1 monday              8     960   0.418    1.00   0.550      21      20      20
    ##  2 monday             10     187   0.667    1.00   0.800       7       0       1
    ##  3 monday             11     103   0.689    1.00   0.806       3       1       1
    ##  4 monday             10     243   0.619    1.00   0.824       1       1       0
    ##  5 monday              8     204   0.586    1.00   0.698       7       2       1
    ##  6 monday             11     315   0.551    1.00   0.702       4       4       1
    ##  7 monday             10    1190   0.409    1.00   0.561      25      24      20
    ##  8 monday              6     374   0.641    1.00   0.828       7       0       1
    ##  9 tuesday            12     499   0.513    1.00   0.662      14       1       1
    ## 10 wednesday          11     223   0.662    1.00   0.826       5       3       0
    ## # … with 2,089 more rows, 38 more variables: num_videos <dbl>,
    ## #   average_token_length <dbl>, num_keywords <dbl>, kw_min_min <dbl>,
    ## #   kw_max_min <dbl>, kw_avg_min <dbl>, kw_min_max <dbl>, kw_max_max <dbl>,
    ## #   kw_avg_max <dbl>, kw_min_avg <dbl>, kw_max_avg <dbl>, kw_avg_avg <dbl>,
    ## #   self_reference_min_shares <dbl>, self_reference_max_shares <dbl>,
    ## #   self_reference_avg_sharess <dbl>, is_weekend <dbl>, LDA_00 <dbl>,
    ## #   LDA_01 <dbl>, LDA_02 <dbl>, LDA_03 <dbl>, LDA_04 <dbl>, …

Split the data into a training set and a test set.

``` r
set.seed(111)
trainIndex <- createDataPartition(news$shares, p = 0.7, list = FALSE)
newsTrain <- news[trainIndex,]
newsTest <- news[-trainIndex,]
newsTrain
```

    ## # A tibble: 1,472 × 47
    ##    publish_wee…¹ n_tok…² n_tok…³ n_uni…⁴ n_non…⁵ n_non…⁶ num_h…⁷ num_s…⁸ num_i…⁹
    ##    <fct>           <dbl>   <dbl>   <dbl>   <dbl>   <dbl>   <dbl>   <dbl>   <dbl>
    ##  1 monday             10     187   0.667    1.00   0.800       7       0       1
    ##  2 monday             11     103   0.689    1.00   0.806       3       1       1
    ##  3 monday             11     315   0.551    1.00   0.702       4       4       1
    ##  4 monday              6     374   0.641    1.00   0.828       7       0       1
    ##  5 tuesday            12     499   0.513    1.00   0.662      14       1       1
    ##  6 wednesday          11     223   0.662    1.00   0.826       5       3       0
    ##  7 wednesday           7    1007   0.438    1.00   0.565      24      23      20
    ##  8 wednesday           9     455   0.496    1.00   0.659      10       5       1
    ##  9 wednesday          14     318   0.633    1.00   0.838       7       0       1
    ## 10 wednesday           7     144   0.723    1.00   0.857       9       6       1
    ## # … with 1,462 more rows, 38 more variables: num_videos <dbl>,
    ## #   average_token_length <dbl>, num_keywords <dbl>, kw_min_min <dbl>,
    ## #   kw_max_min <dbl>, kw_avg_min <dbl>, kw_min_max <dbl>, kw_max_max <dbl>,
    ## #   kw_avg_max <dbl>, kw_min_avg <dbl>, kw_max_avg <dbl>, kw_avg_avg <dbl>,
    ## #   self_reference_min_shares <dbl>, self_reference_max_shares <dbl>,
    ## #   self_reference_avg_sharess <dbl>, is_weekend <dbl>, LDA_00 <dbl>,
    ## #   LDA_01 <dbl>, LDA_02 <dbl>, LDA_03 <dbl>, LDA_04 <dbl>, …
…
``` r
newsTrain %>% 
  group_by(num_imgs) %>% 
  summarise(mean = round(mean(shares), 0), sd = round(sd(shares), 0), 
            median = round(median(shares), 0), IQR = round(IQR(shares), 0))
```

    ## # A tibble: 40 × 5
    ##    num_imgs  mean    sd median   IQR
    ##       <dbl> <dbl> <dbl>  <dbl> <dbl>
    ##  1        0  3334  5212   1600  2100
    ##  2        1  3634 11015   1500  1802
    ##  3        2  3834  9951   1500  1500
    ##  4        3  3306  3317   1850  3406
    ##  5        4  2992  5033   1500  1800
    ##  6        5  5740 10228   2000  2700
    ##  7        6  3409  5423   1650  1775
    ##  8        7  3094  2800   2100  2200
    ##  9        8  2975  3825   1600  1400
    ## 10        9  3565  4174   2100  1950
    ## # … with 30 more rows
…
``` r
set.seed(111)
Train <- newsTrain %>% 
  select(publish_weekday, n_tokens_title, n_tokens_content, num_self_hrefs, num_videos, average_token_length, num_keywords, kw_avg_avg, self_reference_avg_sharess, LDA_04, global_subjectivity, global_sentiment_polarity, avg_positive_polarity, avg_negative_polarity, title_subjectivity, shares)
Test <- newsTest %>% 
  select(publish_weekday, n_tokens_title, n_tokens_content, num_self_hrefs, num_videos, average_token_length, num_keywords, kw_avg_avg, self_reference_avg_sharess, LDA_04, global_subjectivity, global_sentiment_polarity, avg_positive_polarity, avg_negative_polarity, title_subjectivity, shares)
Train
```

    ## # A tibble: 1,472 × 16
    ##    publish_wee…¹ n_tok…² n_tok…³ num_s…⁴ num_v…⁵ avera…⁶ num_k…⁷ kw_av…⁸ self_…⁹
    ##    <fct>           <dbl>   <dbl>   <dbl>   <dbl>   <dbl>   <dbl>   <dbl>   <dbl>
    ##  1 monday             10     187       0       0    4.66       7      0       0 
    ##  2 monday             11     103       1       0    4.84       6      0    5000 
    ##  3 monday             11     315       4       0    4.38      10      0    6200 
    ##  4 monday              6     374       0       0    4.91       8      0       0 
    ##  5 tuesday            12     499       1       0    5.08      10    885.   1300 
    ##  6 wednesday          11     223       3       0    4.55       6   1207.  11700 
    ##  7 wednesday           7    1007      23       0    4.79      10   1488.   3096.
    ##  8 wednesday           9     455       5       0    4.69       9   1367.   3500 
    ##  9 wednesday          14     318       0       0    4.43       7    816.      0 
    ## 10 wednesday           7     144       6       0    4.83      10   1269.   2760 
    ## # … with 1,462 more rows, 7 more variables: LDA_04 <dbl>,
    ## #   global_subjectivity <dbl>, global_sentiment_polarity <dbl>,
    ## #   avg_positive_polarity <dbl>, avg_negative_polarity <dbl>,
    ## #   title_subjectivity <dbl>, shares <dbl>, and abbreviated variable names
    ## #   ¹​publish_weekday, ²​n_tokens_title, ³​n_tokens_content, ⁴​num_self_hrefs,
    ## #   ⁵​num_videos, ⁶​average_token_length, ⁷​num_keywords, ⁸​kw_avg_avg,
    ## #   ⁹​self_reference_avg_sharess
…
