…
#Merge the weekdays columns as one single column.
news <- newsData %>% 
  filter(.data[[channel]] == 1) %>% 
  select(url, starts_with("weekday_is_")) %>% 
  pivot_longer(-url) %>% 
  filter(value != 0) %>% 
  mutate(publish_weekday = substr(name, 12, 20)) %>% 
  left_join(newsData, by = "url") %>% 
#Remove non predictive variables
  select(-c(url, name, value, timedelta, starts_with("data_channel_is_"), starts_with("weekday_is_")))
news$publish_weekday <- as.factor(news$publish_weekday)
news
```

    ## # A tibble: 2,323 × 47
    ##    publish_…¹ n_tok…² n_tok…³ n_uni…⁴ n_non…⁵ n_non…⁶ num_h…⁷ num_s…⁸ num_i…⁹
    ##    <fct>        <dbl>   <dbl>   <dbl>   <dbl>   <dbl>   <dbl>   <dbl>   <dbl>
    ##  1 monday           8     257   0.568    1.00   0.671       9       7       0
    ##  2 monday           8     218   0.663    1.00   0.688      14       3      11
    ##  3 monday           9    1226   0.410    1.00   0.617      10      10       1
    ##  4 monday          10    1121   0.451    1.00   0.629      15      11       1
    ##  5 wednesday        9     168   0.778    1.00   0.865       6       4      11
    ##  6 wednesday        9     100   0.760    1.00   0.803       3       2       1
    ##  7 wednesday       10    1596   0.420    1.00   0.632      19      10       8
    ##  8 thursday         7     518   0.486    1.00   0.654      11       1       1
    ##  9 friday           8     358   0.503    1.00   0.687       4       4       1
    ## 10 friday           6     358   0.622    1.00   0.777      24       6       1
    ## # … with 2,313 more rows, 38 more variables: num_videos <dbl>,
    ## #   average_token_length <dbl>, num_keywords <dbl>, kw_min_min <dbl>,
    ## #   kw_max_min <dbl>, kw_avg_min <dbl>, kw_min_max <dbl>, kw_max_max <dbl>,
    ## #   kw_avg_max <dbl>, kw_min_avg <dbl>, kw_max_avg <dbl>, kw_avg_avg <dbl>,
    ## #   self_reference_min_shares <dbl>, self_reference_max_shares <dbl>,
    ## #   self_reference_avg_sharess <dbl>, is_weekend <dbl>, LDA_00 <dbl>,
    ## #   LDA_01 <dbl>, LDA_02 <dbl>, LDA_03 <dbl>, LDA_04 <dbl>, …
…
``` r
newsTrain %>% 
  group_by(num_imgs) %>% 
  summarise(mean = round(mean(shares), 0), sd = round(sd(shares), 0), 
            median = round(median(shares), 0), IQR = round(IQR(shares), 0))
```

    ## # A tibble: 46 × 5
    ##    num_imgs  mean    sd median   IQR
    ##       <dbl> <dbl> <dbl>  <dbl> <dbl>
    ##  1        0  3042  3922   1700  2025
    ##  2        1  3476  4700   2200  2400
    ##  3        2  4355  6640   2600  3100
    ##  4        3  3704  3968   2550  2225
    ##  5        4  4033  5180   2400  1650
    ##  6        5  2748  1929   2100  2375
    ##  7        6  5895 13545   2100  1600
    ##  8        7  4563  5080   2400  3300
    ##  9        8  4954  6273   3150  4475
    ## 10        9  6572  9474   2100  3800
    ## # … with 36 more rows

``` r
newsTrain %>% 
  group_by(num_videos) %>% 
  summarise(mean = round(mean(shares), 0), sd = round(sd(shares), 0), 
            median = round(median(shares), 0), IQR = round(IQR(shares), 0))
```

    ## # A tibble: 29 × 5
    ##    num_videos  mean    sd median   IQR
    ##         <dbl> <dbl> <dbl>  <dbl> <dbl>
    ##  1          0  3760  5166   2300  2600
    ##  2          1  3271  4541   2000  2100
    ##  3          2  2583  2848   1700  1400
    ##  4          3  2379  2112   1400  1325
    ##  5          4  2933  3151   1600  1175
    ##  6          5  4060  4402   2100  3300
    ##  7          6  3820  4977   1500   800
    ##  8          7  1700   807   1400   300
    ##  9          8  2839  1736   2300  2300
    ## 10          9  2325  1179   2100   850
    ## # … with 19 more rows
…
``` r
set.seed(111)
Train <- newsTrain %>% 
  select(publish_weekday, n_tokens_title, n_tokens_content, num_self_hrefs, num_videos, average_token_length, num_keywords, kw_avg_avg, self_reference_avg_sharess, LDA_04, global_subjectivity, global_sentiment_polarity, avg_positive_polarity, avg_negative_polarity, title_subjectivity, shares)
Test <- newsTest %>% 
  select(publish_weekday, n_tokens_title, n_tokens_content, num_self_hrefs, num_videos, average_token_length, num_keywords, kw_avg_avg, self_reference_avg_sharess, LDA_04, global_subjectivity, global_sentiment_polarity, avg_positive_polarity, avg_negative_polarity, title_subjectivity, shares)
Train
```

    ## # A tibble: 1,628 × 16
    ##    publish_…¹ n_tok…² n_tok…³ num_s…⁴ num_v…⁵ avera…⁶ num_k…⁷ kw_av…⁸ self_…⁹
    ##    <fct>        <dbl>   <dbl>   <dbl>   <dbl>   <dbl>   <dbl>   <dbl>   <dbl>
    ##  1 monday           8     257       7       1    4.64       9      0    1775 
    ##  2 monday           9    1226      10       1    4.39       7      0    2858.
    ##  3 wednesday        9     100       2       0    4.45       6   1072.   1800 
    ##  4 wednesday       10    1596      10       0    4.63       6   1564.   2300 
    ##  5 thursday         7     518       1       0    4.79       7   1862.   3500 
    ##  6 friday           8     358       4       0    4.25       4   2210.  10400 
    ##  7 friday           6     358       6       0    5.39       8   1398.   1600 
    ##  8 friday          11     151       1       0    4.40       9   1385.   1500 
    ##  9 saturday        13     293       5       0    4.67       8   2187.   1700 
    ## 10 monday          10     205       1       0    4.37       5   1455.      0 
    ## # … with 1,618 more rows, 7 more variables: LDA_04 <dbl>,
    ## #   global_subjectivity <dbl>, global_sentiment_polarity <dbl>,
    ## #   avg_positive_polarity <dbl>, avg_negative_polarity <dbl>,
    ## #   title_subjectivity <dbl>, shares <dbl>, and abbreviated variable names
    ## #   ¹​publish_weekday, ²​n_tokens_title, ³​n_tokens_content, ⁴​num_self_hrefs,
    ## #   ⁵​num_videos, ⁶​average_token_length, ⁷​num_keywords, ⁸​kw_avg_avg,
    ## #   ⁹​self_reference_avg_sharess
…
