…
#Merge the weekdays columns as one single column.
news <- newsData %>% 
  filter(.data[[channel]] == 1) %>% 
  select(url, starts_with("weekday_is_")) %>% 
  pivot_longer(-url) %>% 
  filter(value != 0) %>% 
  mutate(publish_weekday = substr(name, 12, 20)) %>% 
  left_join(newsData, by = "url") %>% 
#Remove non predictive variables
  select(-c(url, name, value, timedelta, starts_with("data_channel_is_"), starts_with("weekday_is_")))
news$publish_weekday <- as.factor(news$publish_weekday)
news
```

    ## # A tibble: 7,346 × 47
    ##    publish_…¹ n_tok…² n_tok…³ n_uni…⁴ n_non…⁵ n_non…⁶ num_h…⁷ num_s…⁸ num_i…⁹
    ##    <fct>        <dbl>   <dbl>   <dbl>   <dbl>   <dbl>   <dbl>   <dbl>   <dbl>
    ##  1 monday          13    1072   0.416    1.00   0.541      19      19      20
    ##  2 monday          10     370   0.560    1.00   0.698       2       2       0
    ##  3 monday          12     989   0.434    1.00   0.572      20      20      20
    ##  4 monday          11      97   0.670    1.00   0.837       2       0       0
    ##  5 monday           8    1207   0.411    1.00   0.549      24      24      42
    ##  6 monday          13    1248   0.391    1.00   0.523      21      19      20
    ##  7 monday          11    1154   0.427    1.00   0.573      20      20      20
    ##  8 monday           8     266   0.573    1.00   0.721       5       2       1
    ##  9 monday           8     331   0.563    1.00   0.724       5       3       1
    ## 10 monday          12    1225   0.385    1.00   0.509      22      22      28
    ## # … with 7,336 more rows, 38 more variables: num_videos <dbl>,
    ## #   average_token_length <dbl>, num_keywords <dbl>, kw_min_min <dbl>,
    ## #   kw_max_min <dbl>, kw_avg_min <dbl>, kw_min_max <dbl>, kw_max_max <dbl>,
    ## #   kw_avg_max <dbl>, kw_min_avg <dbl>, kw_max_avg <dbl>, kw_avg_avg <dbl>,
    ## #   self_reference_min_shares <dbl>, self_reference_max_shares <dbl>,
    ## #   self_reference_avg_sharess <dbl>, is_weekend <dbl>, LDA_00 <dbl>,
    ## #   LDA_01 <dbl>, LDA_02 <dbl>, LDA_03 <dbl>, LDA_04 <dbl>, …
…
``` r
newsTrain %>% 
  group_by(num_imgs) %>% 
  summarise(mean = round(mean(shares), 0), sd = round(sd(shares), 0), 
            median = round(median(shares), 0), IQR = round(IQR(shares), 0))
```

    ## # A tibble: 47 × 5
    ##    num_imgs  mean    sd median   IQR
    ##       <dbl> <dbl> <dbl>  <dbl> <dbl>
    ##  1        0  3079  5093   1600  2000
    ##  2        1  2770  4451   1600  1700
    ##  3        2  2690  3855   1700  1550
    ##  4        3  3948  7921   2000  1975
    ##  5        4  3233  4100   1850  2075
    ##  6        5  3720  4359   2200  2400
    ##  7        6  3034  3870   1900  1550
    ##  8        7  3816  5230   2100  2325
    ##  9        8  3043  4757   1950  1500
    ## 10        9  3374  4770   1950  1825
    ## # … with 37 more rows
…
``` r
set.seed(111)
Train <- newsTrain %>% 
  select(publish_weekday, n_tokens_title, n_tokens_content, num_self_hrefs, num_videos, average_token_length, num_keywords, kw_avg_avg, self_reference_avg_sharess, LDA_04, global_subjectivity, global_sentiment_polarity, avg_positive_polarity, avg_negative_polarity, title_subjectivity, shares)
Test <- newsTest %>% 
  select(publish_weekday, n_tokens_title, n_tokens_content, num_self_hrefs, num_videos, average_token_length, num_keywords, kw_avg_avg, self_reference_avg_sharess, LDA_04, global_subjectivity, global_sentiment_polarity, avg_positive_polarity, avg_negative_polarity, title_subjectivity, shares)
Train
```

    ## # A tibble: 5,145 × 16
    ##    publish_…¹ n_tok…² n_tok…³ num_s…⁴ num_v…⁵ avera…⁶ num_k…⁷ kw_av…⁸ self_…⁹
    ##    <fct>        <dbl>   <dbl>   <dbl>   <dbl>   <dbl>   <dbl>   <dbl>   <dbl>
    ##  1 monday          13    1072      19       0    4.68       7       0   3151.
    ##  2 monday          11      97       0       0    4.86       7       0      0 
    ##  3 monday           8    1207      24       0    4.72       8       0   2830.
    ##  4 monday          11    1154      20       0    4.63       7       0   3151.
    ##  5 monday           8     266       2       0    4.26      10       0    924 
    ##  6 monday           8     331       3       0    4.78       9       0   2500 
    ##  7 monday          10     633       2       0    4.99       7       0      0 
    ##  8 monday          14     290       0       0    4.07       9       0      0 
    ##  9 monday          10    1244      22       0    4.75      10       0   3713.
    ## 10 monday          10    1036      21       0    4.73       9       0   3169.
    ## # … with 5,135 more rows, 7 more variables: LDA_04 <dbl>,
    ## #   global_subjectivity <dbl>, global_sentiment_polarity <dbl>,
    ## #   avg_positive_polarity <dbl>, avg_negative_polarity <dbl>,
    ## #   title_subjectivity <dbl>, shares <dbl>, and abbreviated variable names
    ## #   ¹​publish_weekday, ²​n_tokens_title, ³​n_tokens_content, ⁴​num_self_hrefs,
    ## #   ⁵​num_videos, ⁶​average_token_length, ⁷​num_keywords, ⁸​kw_avg_avg,
    ## #   ⁹​self_reference_avg_sharess
…
