…
news <- newsData %>% 
  filter(get(selectChannel) == 1) %>% 
  select(url, starts_with("weekday_is_")) %>% 
  pivot_longer(-url) %>% 
  filter(value != 0) %>% 
  mutate(publish_weekday = substr(name, 12, 20)) %>% 
  left_join(newsData, by = "url") %>% 
#Remove non predictive variables
  select(-c(url, name, value, timedelta, starts_with("data_channel_is_"), starts_with("weekday_is_")))
#convert publish_weekday to factor
news$publish_weekday <- as.factor(news$publish_weekday)
news
```

    ## # A tibble: 8,427 × 47
    ##    publish_…¹ n_tok…² n_tok…³ n_uni…⁴ n_non…⁵ n_non…⁶ num_h…⁷ num_s…⁸ num_i…⁹
    ##    <fct>        <dbl>   <dbl>   <dbl>   <dbl>   <dbl>   <dbl>   <dbl>   <dbl>
    ##  1 monday          10     231   0.636    1.00   0.797       4       1       1
    ##  2 monday           9    1248   0.490    1.00   0.732      11       0       1
    ##  3 monday          12     682   0.460    1.00   0.635      10       0       1
    ##  4 monday           9     391   0.510    1.00   0.650       9       2       1
    ##  5 monday          11     125   0.675    1.00   0.797       1       1       1
    ##  6 monday          11     799   0.504    1.00   0.738       8       6       1
    ##  7 monday          11     317   0.611    1.00   0.729       7       6       1
    ##  8 monday          11     399   0.598    1.00   0.806       8       0       1
    ##  9 monday           9     443   0.467    1.00   0.589       3       1       1
    ## 10 tuesday         12     288   0.589    1.00   0.726       5       2       0
    ## # … with 8,417 more rows, 38 more variables: num_videos <dbl>,
    ## #   average_token_length <dbl>, num_keywords <dbl>, kw_min_min <dbl>,
    ## #   kw_max_min <dbl>, kw_avg_min <dbl>, kw_min_max <dbl>, kw_max_max <dbl>,
    ## #   kw_avg_max <dbl>, kw_min_avg <dbl>, kw_max_avg <dbl>, kw_avg_avg <dbl>,
    ## #   self_reference_min_shares <dbl>, self_reference_max_shares <dbl>,
    ## #   self_reference_avg_sharess <dbl>, is_weekend <dbl>, LDA_00 <dbl>,
    ## #   LDA_01 <dbl>, LDA_02 <dbl>, LDA_03 <dbl>, LDA_04 <dbl>, …
…
We also obtain the numerical summaries on some subgroups. We choose four
example subgroups: number of images, number of videos, and number of
keywords, since people may concern more on these when they do searching
and sharing.

``` r
#numerical summaries on subgroups
newsTrain %>% 
  group_by(num_imgs) %>% 
  summarise(mean = round(mean(shares), 0), sd = round(sd(shares), 0), 
            median = round(median(shares), 0), IQR = round(IQR(shares), 0))
```

    ## # A tibble: 45 × 5
    ##    num_imgs  mean    sd median   IQR
    ##       <dbl> <dbl> <dbl>  <dbl> <dbl>
    ##  1        0  3013  6613   1300  1836
    ##  2        1  1922  3639   1100   819
    ##  3        2  1874  2448   1100   851
    ##  4        3  2710  7724   1200   984
    ##  5        4  2332  4653   1300  1329
    ##  6        5  2748  8959   1200  1068
    ##  7        6  2606  6731   1200   983
    ##  8        7  2113  2143   1400  1222
    ##  9        8  2798  3922   1500  1675
    ## 10        9  3220  5464   1600  1690
    ## # … with 35 more rows

``` r
newsTrain %>% 
  group_by(num_videos) %>% 
  summarise(mean = round(mean(shares), 0), sd = round(sd(shares), 0), 
            median = round(median(shares), 0), IQR = round(IQR(shares), 0))
```

    ## # A tibble: 23 × 5
    ##    num_videos  mean    sd median   IQR
    ##         <dbl> <dbl> <dbl>  <dbl> <dbl>
    ##  1          0  2093  4316   1100   987
    ##  2          1  2571  6227   1100  1159
    ##  3          2  3125  9236   1200  1319
    ##  4          3  2459  5320   1200  1105
    ##  5          4  2253  2260   1500  1678
    ##  6          5  1991  1471   1300  1404
    ##  7          6  2085  1775   1500   800
    ##  8          7  5497 10739   1350  1612
    ##  9          8  1397   913   1100   717
    ## 10          9  1764   664   1600   550
    ## # … with 13 more rows
…
